{
  "project_info": {
    "project_number": "300401364934",
    "project_id": "sunacarepl-660de",
    "storage_bucket": "sunacarepl-660de.appspot.com"
  },
  "client": [
    {
      "client_info": {
        "mobilesdk_app_id": "1:300401364934:android:4311efb540ea0094a22cc7",
        "android_client_info": {
          "package_name": "com.sunacarepl.sc"
        }
      },
      "oauth_client": [
        {
          "client_id": "300401364934-rpa7tle84b66l20hh0s3gnt8hq7jfje9.apps.googleusercontent.com",
          "client_type": 3
        }
      ],
      "api_key": [
        {
          "current_key": "AIzaSyAo4s_RdbrJvXZZY0l0LvYjVJeQxmFw_7A"
        }
      ],
      "services": {
        "appinvite_service": {
          "other_platform_oauth_client": [
            {
              "client_id": "300401364934-rpa7tle84b66l20hh0s3gnt8hq7jfje9.apps.googleusercontent.com",
              "client_type": 3
            }
          ]
        }
      }
    }
  ],
  "configuration_version": "1"
}